<?xml version="1.0" encoding="utf-8"?>
<!-- Generator: Adobe Illustrator 21.0.2, SVG Export Plug-In . SVG Version: 6.00 Build 0)  -->
<svg version="1.1" id="Layer_1" xmlns="http://www.w3.org/2000/svg" xmlns:xlink="http://www.w3.org/1999/xlink" x="0px" y="0px"
	 viewBox="0 0 4408 874" style="enable-background:new 0 0 4408 874;" xml:space="preserve">
<style type="text/css">
	.st0{fill:#404041;}
	.st1{fill:#EF5335;}
	.st2{fill:#2EADDF;}
	.st3{fill:#FFC12F;}
	.st4{fill:#A7CE38;}
</style>
<g>
	<path class="st0" d="M1182.3,796.8V77h595.6v92.4h-494.7v207h438.4v92.4h-438.4v235.7h500v92.4H1182.3z"/>
	<path class="st0" d="M2613.2,796.8l-271.8-297.2l-275,297.2h-132.7l339.7-369.4L1949.7,77h134.8l256.9,279.2l259-279.2h133.8
		l-324.8,350.3l335.5,369.4H2613.2z"/>
	<path class="st0" d="M3436.9,459.2c-52.4,29-117.5,43.5-195.3,43.5h-244.2v294.1h-101.9V77h357.8c191.1,0,286.6,71.8,286.6,215.5
		C3539.9,366.2,3505.5,421.7,3436.9,459.2z M3259.6,169.4h-262.2v241h263.3c51,0,92.4-9.9,124.2-29.7c34.7-21.2,52-50.2,52-87.1
		C3436.9,210.8,3377.8,169.4,3259.6,169.4z"/>
	<path class="st0" d="M4304.2,701.7c-69.2,66.2-162.7,99.3-280.4,99.3c-118.4,0-211.8-32.9-280.4-98.7
		c-68.6-65.8-102.8-155.7-102.8-269.6c0-113.9,35.1-202.8,105.3-266.9c67.5-61.9,160.2-92.9,277.9-92.9c117.7,0,210.7,31,278.9,92.9
		c70.2,64.1,105.3,153,105.3,266.9C4408,545.8,4373.4,635.5,4304.2,701.7z M4236.5,234.6c-50.2-45.9-121.1-68.9-212.7-68.9
		c-91.6,0-162.2,23.1-211.7,69.4c-49.5,46.3-74.2,112.1-74.2,197.5c0,85.4,25.1,152.7,75.2,201.8s120.4,73.7,210.7,73.7
		c91.6,0,162.5-24.4,212.7-73.1c50.2-48.8,75.2-116.2,75.2-202.3C4311.7,346.5,4286.6,280.5,4236.5,234.6z"/>
</g>
<path class="st1" d="M874,187.7c-1.4-49.5-21.3-95.7-56.5-130.9c-75.3-75.3-197.9-75.3-273.2,0l-62,62l-241,241l58.1,58.1l33.8-33.8
	l181.3-181.3l87.9-87.9c0,0,0.3-0.3,1-0.9c11.4-11.1,24.5-19.2,38.5-24.4c39.5-14.8,85.8-6.4,117.5,25.3c21,21,32.5,48.9,32.5,78.5
	c0,29.7-11.6,57.6-32.5,78.5l-87.9,87.9l58.1,58.1l87.9-87.9c36.5-36.5,56.6-85,56.6-136.6C874.1,191.5,874,189.6,874,187.7z"/>
<path class="st2" d="M383.9,541.1L202.5,359.8l-87.8-87.9c0,0-0.3-0.3-0.9-1c-11.1-11.4-19.2-24.5-24.4-38.5
	c-14.8-39.5-6.4-85.8,25.3-117.5c21-21,48.9-32.5,78.5-32.5c29.7,0,57.6,11.6,78.5,32.5l87.9,87.9l58.1-58.1l-87.9-87.9
	c-36.5-36.5-85-56.6-136.6-56.6c-1.9,0-3.8,0.1-5.7,0.1C138,1.8,91.7,21.6,56.6,56.8c-75.3,75.3-75.3,197.9,0,273.2l62,62l241,241
	l58.1-58.1L383.9,541.1z"/>
<path class="st3" d="M574.7,456.6l-33.8,33.8L359.6,671.7l-87.9,87.9c0,0-0.3,0.3-1,0.9c-11.4,11.1-24.5,19.2-38.5,24.4
	c-39.5,14.8-85.8,6.4-117.5-25.3c-21-21-32.5-48.9-32.5-78.5c0-29.7,11.6-57.6,32.5-78.5l87.9-87.9l-58.1-58.1l-87.9,87.9
	C20.1,580.9,0,629.5,0,681.1c0,1.9,0.1,3.8,0.1,5.7c1.4,49.5,21.3,95.7,56.5,130.9c75.3,75.3,197.9,75.3,273.2,0l62-62l241-241
	L574.7,456.6z"/>
<path class="st4" d="M817.5,544.4l-62-62l-241-241l-58.1,58.1l33.8,33.8l181.3,181.3l87.9,87.9c0,0,0.3,0.3,0.9,1
	c11.1,11.4,19.2,24.5,24.4,38.5c14.8,39.5,6.4,85.8-25.3,117.5c-21,21-48.9,32.5-78.5,32.5c-29.7,0-57.6-11.6-78.5-32.5l-87.9-87.9
	l-58.1,58.1l87.9,87.9c36.5,36.5,85,56.6,136.6,56.6c1.9,0,3.8-0.1,5.7-0.1c49.5-1.4,95.7-21.3,130.9-56.5
	C892.8,742.4,892.8,619.8,817.5,544.4z"/>
</svg>
